%YAML 1.1
%TAG !u! tag:unity3d.com,2011:
--- !u!1045 &1
EditorBuildSettings:
  m_ObjectHideFlags: 0
  serializedVersion: 2
  m_Scenes:
  - enabled: 1
    path: Assets/Scenes/Main.unity
    guid: 99c9720ab356a0642a771bea13969a05
  - enabled: 1
    path: Assets/Scenes/Level 1.unity
    guid: e02ba6fb159313845a41e59ade97429e
  - enabled: 1
    path: Assets/Scenes/Level 2.unity
    guid: 6a2b59d7155fd084ca3ac050c7955f45
  m_configObjects:
    com.unity.addressableassets: {fileID: 11400000, guid: 8a1757862b2ac7a4cad6592278ef99c4,
      type: 2}
